{
  "id": 2,
  "sha": "b83d6e391c22777fca1ed3012fce84f633d7fed0",
  "ref": "refs/merge-requests/1/head",
  "status": "pending",
  "web_url": "http://localhost/user1/project1/pipelines/2",
  "before_sha": "0000000000000000000000000000000000000000",
  "tag": false,
  "yaml_errors": null,
  "user": {
    "id": 1,
    "name": "John Doe1",
    "username": "user1",
    "state": "active",
    "avatar_url": "https://www.gravatar.com/avatar/c922747a93b40d1ea88262bf1aebee62?s=80&d=identicon",
    "web_url": "http://example.com"
  },
  "created_at": "2019-09-04T19:20:18.267Z",
  "updated_at": "2019-09-04T19:20:18.459Z",
  "started_at": null,
  "finished_at": null,
  "committed_at": null,
  "duration": null,
  "coverage": null,
  "detailed_status": {
    "icon": "status_pending",
    "text": "pending",
    "label": "pending",
    "group": "pending",
    "tooltip": "pending",
    "has_details": false,
    "details_path": "/user1/project1/pipelines/2",
    "illustration": null,
    "favicon": "/assets/ci_favicons/favicon_status_pending-5bdf338420e5221ca24353b6bff1c9367189588750632e9a871b7af09ff6a2ae.png"
  }
}
