[
  {
    "project_id": 1,
    "disk_path": "@hashed/6b/86/6b86b273ff34fce19d6b804eff5a3f5747ada4eaa22f1d49c01e52ddb7875b4b",
    "created_at": "2012-10-12T17:04:47Z",
    "repository_storage": "default"
  }
]
